{
    "data": [
        {
            "id": "evt-001",
            "title": "Air Max: Vote for the Best Design",
            "description": "Vote for your favorite Air Max redesign and earn rewards for each vote cast. Community decides the next iconic drop.",
            "eventType": "vote",
            "status": "live",
            "startTime": "2026-02-10T10:00:00.000Z",
            "endTime": "2026-02-23T10:00:00.000Z",
            "capacity": null,
            "baseReward": 0.05,
            "topReward": null,
            "leaderboardPool": 5000,
            "blockchainStatus": "confirmed",
            "brandId": "brand-001",
            "brand": {
                "id": "brand-001",
                "name": "Nike Originals",
                "handle": "nike",
                "avatar": "https://ui-avatars.com/api/?name=Nike&background=2F6AFF&color=fff",
                "verified": true
            },
            "totalVotes": 4230,
            "totalSubmissions": 182,
            "coverImage": "https://lh3.googleusercontent.com/aida-public/AB6AXuCYiG-zIhRn_VJ8cj1EL2PwG6YhycgoqKoayLqHvOciU27W6ymsq3dAES2LeCuiYkMC8M0saTD50kGdcOZUXXOET8UNKfxoHKPGqvYUjJ_rM2C5D9MwiPp9i6BXFAlHr34VGtAB6j_nlXnmCLEM_EcQ8inYkiAVQXsLv93k_0vvBbwEVjXn-YDBki0M44ogo_9PpGDrfAZ0eDWVQqenqgTTPHg043QFcZOUPPS3qkEef6k80vOQI_GZNeBTeht1HsvUGDOmy_ZzGOSk",
            "progress": 72,
            "userState": null
        },
        {
            "id": "evt-002",
            "title": "Playlist Cover Art",
            "description": "Create original playlist cover art that captures the essence of a mood or genre. Top submissions win big.",
            "eventType": "post",
            "status": "live",
            "startTime": "2026-02-12T08:00:00.000Z",
            "endTime": "2026-02-26T08:00:00.000Z",
            "capacity": null,
            "baseReward": 0.10,
            "topReward": 1500,
            "leaderboardPool": 3000,
            "blockchainStatus": "confirmed",
            "brandId": "brand-002",
            "brand": {
                "id": "brand-002",
                "name": "Spotify",
                "handle": "spotify",
                "avatar": "https://ui-avatars.com/api/?name=Spotify&background=1DB954&color=fff",
                "verified": true
            },
            "totalVotes": 2180,
            "totalSubmissions": 94,
            "coverImage": "https://lh3.googleusercontent.com/aida-public/AB6AXuBhMKldK8ut-GonyZ8kV-6qVEeafBOLVHaRRDUUgDJdulQr1t4_KWnmsZzVDdsNnHNO3tbwHfPGxDRfgSFU3X1JnD56bMgJw_f_mq2zkdiKXg2wt5mMeus-4dxs7Br6mAFeI2jwUoXd3ZZqL5ouc-V6GmLsUYRDzxg4EUWiwvJcMnn2sHjfwMt7ftzaUOnQ_yzsFgox-jfDLfWmpZLLulk_NunmOHnSFh6tQgCgEH3ejbFqKJN_6dmC9VBlCf9fUWtoDdQv0laOCpfM",
            "progress": null,
            "userState": null
        },
        {
            "id": "evt-003",
            "title": "Custom Exhaust Build-off",
            "description": "Vote for the best custom exhaust modification. Showcase community craftsmanship and win rewards.",
            "eventType": "vote",
            "status": "ending_soon",
            "startTime": "2026-02-15T12:00:00.000Z",
            "endTime": "2026-02-20T12:00:00.000Z",
            "capacity": null,
            "baseReward": 0.03,
            "topReward": null,
            "leaderboardPool": 1200,
            "blockchainStatus": "confirmed",
            "brandId": "brand-003",
            "brand": {
                "id": "brand-003",
                "name": "Moto World",
                "handle": "motoworld",
                "avatar": "https://ui-avatars.com/api/?name=Moto&background=EF4444&color=fff",
                "verified": false
            },
            "totalVotes": 856,
            "totalSubmissions": 41,
            "coverImage": "https://lh3.googleusercontent.com/aida-public/AB6AXuCIQc4XTLhvfd8OoVZm5ddVU-PaVsNsHSukuY_3HcJg84l2RK-YhkoY_dU07xPZQIDLeJ8XJbIxHi54V_3BJ3_1LjsdojT89HtQb6R0aG2LP9dyxc4FdlSGc0uqxty-qY_FIEkzpFqGtlx_uDLUElN7z_BD25-PJPi9t2Fy6YDD2tDS5mqRk-1FMjJWQWYKlOUrfiW10qM_XcnTjrbXIr5-NPjtaTxQoTrK2xB0aK86SZCCMXvqTV31iUz_9ytY7e_MQ65D-orXxR_W",
            "progress": 90,
            "userState": null
        },
        {
            "id": "evt-004",
            "title": "Summer Salad Challenge",
            "description": "Show us your best summer salad creation. Wholesome, fresh, and creative — top entries win real rewards.",
            "eventType": "post",
            "status": "live",
            "startTime": "2026-02-16T09:00:00.000Z",
            "endTime": "2026-02-25T09:00:00.000Z",
            "capacity": null,
            "baseReward": 0.08,
            "topReward": 800,
            "leaderboardPool": 2000,
            "blockchainStatus": "confirmed",
            "brandId": "brand-004",
            "brand": {
                "id": "brand-004",
                "name": "WholeFoods",
                "handle": "wholefoods",
                "avatar": "https://ui-avatars.com/api/?name=WF&background=22C55E&color=fff",
                "verified": true
            },
            "totalVotes": 2100,
            "totalSubmissions": 87,
            "coverImage": "https://lh3.googleusercontent.com/aida-public/AB6AXuA3n6P0VAMdsJsdnJJc521hdALiqRySabaOBYBM2_vy7XtURi37q-rxU_aIFUasQjKfgpRBCyzl4C9vMSqy_pq9pP84PySV55piDFPn6DpLhgnPD-mRBT5InUrEmaYfKttw9U-41BRrxyKH1f5O4nVxoaIzB6Cb5trB_GLIylsVkkJ47DFZBwx54MlWMHuk37x5G_4lBsu7wNVLk4vXL8gwXCqKZ1ezieJDjc2XWhf_IdcHZDRcHobi7qIi2GtRoSa_f80QjD5B5Mbb",
            "progress": null,
            "userState": "participated"
        },
        {
            "id": "evt-005",
            "title": "VR World Builder",
            "description": "Build immersive VR worlds and win big. Showcase your vision for the future of virtual reality.",
            "eventType": "post",
            "status": "scheduled",
            "startTime": "2026-02-21T10:00:00.000Z",
            "endTime": "2026-03-07T10:00:00.000Z",
            "capacity": 500,
            "baseReward": 0.12,
            "topReward": 1000,
            "leaderboardPool": 1500,
            "blockchainStatus": "pending",
            "brandId": "brand-005",
            "brand": {
                "id": "brand-005",
                "name": "Meta",
                "handle": "meta",
                "avatar": "https://ui-avatars.com/api/?name=Meta&background=0668E1&color=fff",
                "verified": true
            },
            "totalVotes": 0,
            "totalSubmissions": 0,
            "coverImage": "https://lh3.googleusercontent.com/aida-public/AB6AXuD_wXTlpT_fBi2H4Yr0X1aI49tzxmkAwYIdidnbBQO3MPGM4_jjB9D1_TiInVHUSxrOVSKIAx2fpaRuGibiSwZNaY24dpjrlyaXaRHyXfzTv9VcUy1GqLQJ5IdyoKEjRXQy7TUUqbXe2V4DfGnOTomuAMF2ox6Lg4_mAyQMmcKRiNITqfrHGIboZNY9sRZ5LnOmiwqt7BMIW2UPqtD8bS_S6HPeEcOsi2InbVbPYw1E6amb2mRnNndD93oseMdTVLOO8eH6DelReWNH",
            "progress": null,
            "userState": null
        },
        {
            "id": "evt-006",
            "title": "Peak Adventure Photo",
            "description": "Vote for the best peak adventure photography. Raw, unfiltered nature captured by the community.",
            "eventType": "vote",
            "status": "ended",
            "startTime": "2026-01-20T10:00:00.000Z",
            "endTime": "2026-02-10T10:00:00.000Z",
            "capacity": null,
            "baseReward": 0.04,
            "topReward": null,
            "leaderboardPool": 800,
            "blockchainStatus": "confirmed",
            "brandId": "brand-006",
            "brand": {
                "id": "brand-006",
                "name": "North Face",
                "handle": "northface",
                "avatar": "https://ui-avatars.com/api/?name=NF&background=000000&color=fff",
                "verified": true
            },
            "totalVotes": 342,
            "totalSubmissions": 18,
            "coverImage": "https://lh3.googleusercontent.com/aida-public/AB6AXuC3AGais-gwxMRoyDzXwF7j1yp-ppTPDvKQpSh9_z1RrlG0-uy2iDCln-qkMhPxvna7M4HIAu1iS-VpZ6rFu3V90m_5Wh2kkd3FE3NN3t8Jt5XDbsdrUPk7DEKfDm0wDQEop2PqrLdxDUgEVc2jTGgFu1fDPPGlVUP9gbP6xCJfcf_t8IU9OJpdZopHXOPkK20XQG_Mb05AEEI3IRbNeupHSp41uTo_gbmehfqR98-GmDkILfle7be5DiA4dIX20yqjsKSsLq-La0U0",
            "progress": 100,
            "userState": "won"
        }
    ],
    "meta": {
        "total": 24,
        "page": 1,
        "pageSize": 6,
        "hasMore": true
    }
}
